{
  "email": "parent1@gmail.com",
  "name" : "parentName1",
  "surname" : "parentSurname1",
  "children" : [
    {
      "name" : "name1",
      "surname" : "surname1"
    },
    {
      "name" : "name2",
      "surname" : "surname2"
    }
  ]
}