{
  "line": "3",
  "admin": {
    "email": "mario.rossi@pedibus.com",
    "name": "Mario",
    "surname": "Rossi",
    "children": []
  },
  "places": [
    {
      "place": "Scuola Materna Collodi",
      "toSchool": "08:30",
      "toHome": "16:30",
      "lat": "45.047917",
      "lon": "7.6480483"
    },
    {
      "place": "Chiesa Cristiana",
      "toSchool": "08:50",
      "toHome": "16:20",
      "lat": "45.045593",
      "lon": "7.643494"
    },
    {
      "place": "Elementary School Mazzini",
      "toSchool": "09:00",
      "toHome": "16:00",
      "lat": "45.045593",
      "lon": "7.643494"
    }
  ]
}
